{
  "watch": [
    "src"
  ],
  "ext": "ts",
  "ignore": [
    "src/**/*.spec.ts"
  ],
  "exec": "node -r ts-node/register -r tsconfig-paths/register --inspect src/index.ts",
  "env": {
    "NODE_ENV": "development"
  },
  "restartable": "rs"
}
